Fitting Exercise – Anissa Waller Del Valle: Data Analysis Portfolio
…
The residual plot shows that residuals are not randomly distributed around zero. There appears to be a pattern where larger predicted values are associated with more negative residuals, indicating that the model tends to underpredict higher outcome values. This suggests that the model may be missing important nonlinear relationships or relevant predictors.

#Part 2 - Model Predictions and Uncertainty

# Reset seed for reproducibility
set.seed(rngseed)

# Create 100 bootstrap samples from the training data
boot_samples <- bootstraps(train_data, times = 100)

# Look at the bootstrap object
boot_samples

# Bootstrap sampling 
# A tibble: 100 × 2
   splits          id          
   <list>          <chr>       
 1 <split [90/33]> Bootstrap001
 2 <split [90/32]> Bootstrap002
 3 <split [90/26]> Bootstrap003
 4 <split [90/39]> Bootstrap004
 5 <split [90/32]> Bootstrap005
 6 <split [90/38]> Bootstrap006
 7 <split [90/36]> Bootstrap007
 8 <split [90/38]> Bootstrap008
 9 <split [90/32]> Bootstrap009
10 <split [90/33]> Bootstrap010
# ℹ 90 more rows
…
